{
  "response": {
    "count": 417982,
    "items": [
      {
        "id": 434717846,
        "album_id": 220153304,
        "owner_id": 40684370,
        "photo_75": "http://cs837625.vk.me/v837625370/84a0/YRrOitUQoGI.jpg",
        "photo_130": "http://cs837625.vk.me/v837625370/84a1/gQjQA_cOVik.jpg",
        "photo_604": "http://cs837625.vk.me/v837625370/84a2/xshpoQrggls.jpg",
        "photo_807": "http://cs837625.vk.me/v837625370/84a3/cqnJQsFebjs.jpg",
        "photo_1280": "http://cs837625.vk.me/v837625370/84a4/xqOHHKLgtSw.jpg",
        "width": 657,
        "height": 1000,
        "text": "Жить своей жизнью / Vivre sa vie: Film en douze tableaux 1962\n\nэкзистенциальная драма",
        "date": 1477137228
      },
      {
        "id": 438046546,
        "album_id": 235148376,
        "owner_id": -91352065,
        "user_id": 100,
        "photo_75": "http://cs637716.vk.me/v637716245/1cd0c/Xgn66Jn43OU.jpg",
        "photo_130": "http://cs637716.vk.me/v637716245/1cd0d/yHNzW1KpFAI.jpg",
        "photo_604": "http://cs637716.vk.me/v637716245/1cd0e/XtfZ2RuoKSo.jpg",
        "photo_807": "http://cs637716.vk.me/v637716245/1cd0f/2uFY7zZ4gCU.jpg",
        "width": 700,
        "height": 700,
        "text": "https://www.sima-land.ru/1307313/ployka-sakura-sa-4400-25-30-vt-25-mm-keramicheskoe-pokrytie/?sort=price\nКод\\Артикул: 1307313\nПлойка Sakura SA-4400-25, 30 Вт, 25 мм, керамическое покрытие\n563 руб.\nЩипцы Sakura воплотят ваши мечты о роскошных локонах в реальность! Температура нагрева в 150 градусов и керамическое покрытие рабочей поверхности гарантируют эффективную работу и бережное отношение к волосам. Данная модель особенно удобна в эксплуатации благодаря:складной подставке; петле для подвешивания; прорезиненной ручке; вращающемуся шнуру. Функции:завивка волос; защита от перегрева; световая индикация работы. ХарактеристикиМощность: 30 Вт. Материал корпуса: прорезиненный пластик. Материал рабочей поверхности: керамика. Диаметр рабочей поверхности: 25 мм. Максимальная температура нагрева: 150 °C. Параметры питания: 220–240 В. Вращающийся шнур питания: 1,8 м. Гарантия: 12 месяцев. Щипцы Sakura не требуют жертв для красоты ваших волос!\nТорговая марка: SAKURA\nВ боксе: 24 шт\nСтрана: Китай\nСостав: Металл, пластик\nИндивидуальная упаковка: Картонная коробка\nРазмер упаковки: 36,5 см × 8,5 см × 5,2 см\nВес: 375 г\nСертификат: ЕАС\nМинимальный заказ: от 1 шт\nТип: Плойка\nПокрытие: Керамика\nМощность, Вт: 30",
        "date": 1477136480
      },
      {
        "id": 438917814,
        "album_id": 237328561,
        "owner_id": -78604331,
        "user_id": 100,
        "photo_75": "http://cs626123.vk.me/v626123146/3428a/4ammKi9IGSo.jpg",
        "photo_130": "http://cs626123.vk.me/v626123146/3428b/N7Hvwid3hh0.jpg",
        "photo_604": "http://cs626123.vk.me/v626123146/3428c/4JpF6NIW_Jk.jpg",
        "photo_807": "http://cs626123.vk.me/v626123146/3428d/MaVsnsGkgBY.jpg",
        "photo_1280": "http://cs626123.vk.me/v626123146/3428e/xaEZrYeHJCw.jpg",
        "width": 900,
        "height": 600,
        "text": "Настольная игра Истории в кубиках Сказки\nЦена: 158 RUB\nСсылка на товар: http://interactivetoys.su/./product/nastolnaya_igra_istorii_v_kubikah_skazki_12kubikov_pl-sa-42045/\n Производитель: Китай \nМодель: Настольная игра Истории в кубиках Сказки \nАртикул: 42045",
        "date": 1477136120
      },
      {
        "id": 435409084,
        "album_id": 237379822,
        "owner_id": -20887059,
        "user_id": 100,
        "photo_75": "http://cs626919.vk.me/v626919005/29407/a6fUFBkxPtA.jpg",
        "photo_130": "http://cs626919.vk.me/v626919005/29408/9NrPglJ4ye8.jpg",
        "photo_604": "http://cs626919.vk.me/v626919005/29409/pbkWhx8DfyE.jpg",
        "photo_807": "http://cs626919.vk.me/v626919005/2940a/QihyDUkY8E0.jpg",
        "width": 750,
        "height": 750,
        "text": "http://ivtextiltorg.ru/postelnoe-bele/zima-leto/kollekciya-postelnogo-belya-2-zima-leto-120.html\nКод\\Артикул: 011-кпб2-зима-лето\nКоллекция постельного белья 2 Зима-лето 120\n1 187,00 руб.\nРазмеры: 1,5 спальный; 2 спальный (1345 руб.); 2 спальный с европростыней (1469 руб.); Евро 2х20 (1593 руб.); Семейный (1978 руб.); Выберите расцветку:; JKA121; JKA155; sa-563; sa-591; TM-3206-Z; TM3302Z; y3d570; y5d1658; y5d1660; y5d1662\nТкань: поплин\n\nСостав ткани: 100% хлопок\nПлотность ткани: 120 г/м2",
        "date": 1477135407
      },
      {
        "id": 439618787,
        "album_id": 237572494,
        "owner_id": 208699566,
        "photo_75": "http://cs626318.vk.me/v626318566/370f1/W1HGn-_WYX8.jpg",
        "photo_130": "http://cs626318.vk.me/v626318566/370f2/2ZhrQMGPnnY.jpg",
        "photo_604": "http://cs626318.vk.me/v626318566/370f3/mC_nx7bSa8Y.jpg",
        "width": 600,
        "height": 600,
        "text": "пинцет для наращивания Vetus скошенный 6A-SA \n\nПрофессиональные пинцеты \"Vetus\" изготовлены из нержавеющей стали высокого качества. Обладают точным захватом, плавным и мягким ходом.\n\nСтоимость: 550 рублей",
        "date": 1477135329
      },
      {
        "id": 435407054,
        "album_id": 237379822,
        "owner_id": -20887059,
        "user_id": 100,
        "photo_75": "http://cs626919.vk.me/v626919005/28dde/DCe5F7kteds.jpg",
        "photo_130": "http://cs626919.vk.me/v626919005/28ddf/_lFqb8sSkbM.jpg",
        "photo_604": "http://cs626919.vk.me/v626919005/28de0/yUY0YLxErBA.jpg",
        "photo_807": "http://cs626919.vk.me/v626919005/28de1/DwVB-ffEGaQ.jpg",
        "width": 750,
        "height": 750,
        "text": "http://ivtextiltorg.ru/postelnoe-bele/poplin/kollekciya-postelnogo-belya2-poplin-3d.html\nКод\\Артикул: 011-кпб-поплин\nКоллекция постельного белья2 поплин 3D\n962,00 руб.\nРазмеры: Выберите расцветку:; SA-559; tm1404Z; tm2102z; TM3206Z; TM3302Z; y3d536; y3d551; y3d571; y5d1657; y5d1667; y7d008; y7d010; y7d051; 1,5 спальный; 2 спальный (1120 руб.); 2 спальный с европростыней (1220 руб.); 2 спальный с европростыней на резинке (1260 руб.); Евро (1278 руб.); Семейный (1572 руб.)\nТкань: поплин\nСостав ткани: 100% хлопок\nПлотность ткани: 115 г/м2\n",
        "date": 1477134585
      },
      {
        "id": 441525582,
        "album_id": 236860814,
        "owner_id": -77360082,
        "user_id": 100,
        "photo_75": "http://cs636524.vk.me/v636524684/34a70/ca40kuJdyrM.jpg",
        "photo_130": "http://cs636524.vk.me/v636524684/34a71/uc4OnWbt9Zs.jpg",
        "photo_604": "http://cs636524.vk.me/v636524684/34a72/UDcSGf47lbg.jpg",
        "width": 280,
        "height": 280,
        "text": "Щетка для мытья Li-Sa, проточная ручка со штуцером для подачи воды, 31 см\nЦена: 158 руб.\nАрт.: 1447486\nЩётка Li-Sa предназначена для мытья автомобиля и имеет специальную насадку для подсоединения шланга к водопроводу. Это позволит произвести более качественную чистку вашего транспортного средства.\nПроизводитель  Li-Sa",
        "date": 1477134097
      },
      {
        "id": 438063510,
        "album_id": 236984345,
        "owner_id": -75755809,
        "user_id": 100,
        "photo_75": "http://cs636124.vk.me/v636124488/32971/Znn7Bu5m3h8.jpg",
        "photo_130": "http://cs636124.vk.me/v636124488/32972/gjTeJx-vvZ8.jpg",
        "photo_604": "http://cs636124.vk.me/v636124488/32973/B6d7Fr3UBS0.jpg",
        "width": 500,
        "height": 353,
        "text": "SA-572\n",
        "date": 1477133812
      },
      {
        "id": 438063509,
        "album_id": 236984345,
        "owner_id": -75755809,
        "user_id": 100,
        "photo_75": "http://cs636124.vk.me/v636124488/3296a/xrckDDAvRAM.jpg",
        "photo_130": "http://cs636124.vk.me/v636124488/3296b/u0xSfSCtJrg.jpg",
        "photo_604": "http://cs636124.vk.me/v636124488/3296c/VkmzbyISur0.jpg",
        "width": 500,
        "height": 353,
        "text": "SA-658\n",
        "date": 1477133812
      },
      {
        "id": 438063504,
        "album_id": 236984345,
        "owner_id": -75755809,
        "user_id": 100,
        "photo_75": "http://cs636124.vk.me/v636124488/32955/6xEsKiKPpu0.jpg",
        "photo_130": "http://cs636124.vk.me/v636124488/32956/7mXoNk5QDZU.jpg",
        "photo_604": "http://cs636124.vk.me/v636124488/32957/5_Dvpw_aUaU.jpg",
        "width": 500,
        "height": 371,
        "text": "SA-638\n",
        "date": 1477133810
      },
      {
        "id": 439276116,
        "album_id": 165607590,
        "owner_id": -45949012,
        "user_id": 161820310,
        "photo_75": "http://cs626827.vk.me/v626827310/33998/QDCkSpxnjEo.jpg",
        "photo_130": "http://cs626827.vk.me/v626827310/33999/MQ5waEjWLL8.jpg",
        "photo_604": "http://cs626827.vk.me/v626827310/3399a/u1G44WgYW50.jpg",
        "photo_807": "http://cs626827.vk.me/v626827310/3399b/hI1vgfOxdmE.jpg",
        "photo_1280": "http://cs626827.vk.me/v626827310/3399c/emK3qJ2Vc14.jpg",
        "width": 864,
        "height": 1024,
        "text": "SA 2016 SP",
        "date": 1477132382
      },
      {
        "id": 439276108,
        "album_id": 165607590,
        "owner_id": -45949012,
        "user_id": 161820310,
        "photo_75": "http://cs626827.vk.me/v626827310/3398f/G93qFnUc8T8.jpg",
        "photo_130": "http://cs626827.vk.me/v626827310/33990/nO0QlYQWVn0.jpg",
        "photo_604": "http://cs626827.vk.me/v626827310/33991/4dU2G8sHbhY.jpg",
        "photo_807": "http://cs626827.vk.me/v626827310/33992/pZvvs7CYU4s.jpg",
        "photo_1280": "http://cs626827.vk.me/v626827310/33993/AaJEMHXKDnQ.jpg",
        "width": 1024,
        "height": 682,
        "text": "SA 2016 SP",
        "date": 1477132378
      },
      {
        "id": 439276105,
        "album_id": 165607590,
        "owner_id": -45949012,
        "user_id": 161820310,
        "photo_75": "http://cs626827.vk.me/v626827310/33986/Yj7qiNPGaJg.jpg",
        "photo_130": "http://cs626827.vk.me/v626827310/33987/EvTGWxT5p1w.jpg",
        "photo_604": "http://cs626827.vk.me/v626827310/33988/w38tuyL6tTY.jpg",
        "photo_807": "http://cs626827.vk.me/v626827310/33989/G-Ja-Vs8GME.jpg",
        "photo_1280": "http://cs626827.vk.me/v626827310/3398a/u3Zl4HBGL8A.jpg",
        "width": 1024,
        "height": 682,
        "text": "SA 2016 SP",
        "date": 1477132376
      },
      {
        "id": 439276096,
        "album_id": 165607590,
        "owner_id": -45949012,
        "user_id": 161820310,
        "photo_75": "http://cs626827.vk.me/v626827310/3397d/z9goOr1KE20.jpg",
        "photo_130": "http://cs626827.vk.me/v626827310/3397e/vZ1997yqR04.jpg",
        "photo_604": "http://cs626827.vk.me/v626827310/3397f/NFN1dz2wb_w.jpg",
        "photo_807": "http://cs626827.vk.me/v626827310/33980/F-DkN-YpqDU.jpg",
        "photo_1280": "http://cs626827.vk.me/v626827310/33981/2bLF0th6pq8.jpg",
        "width": 1024,
        "height": 682,
        "text": "SA 2016 SP",
        "date": 1477132374
      },
      {
        "id": 439276094,
        "album_id": 165607590,
        "owner_id": -45949012,
        "user_id": 161820310,
        "photo_75": "http://cs626827.vk.me/v626827310/33974/6qz8gTRaYc4.jpg",
        "photo_130": "http://cs626827.vk.me/v626827310/33975/biioWI4wrfc.jpg",
        "photo_604": "http://cs626827.vk.me/v626827310/33976/GCmYV_Zq_5E.jpg",
        "photo_807": "http://cs626827.vk.me/v626827310/33977/D_PfK-cNegs.jpg",
        "photo_1280": "http://cs626827.vk.me/v626827310/33978/iJm8eXWh7Kc.jpg",
        "width": 682,
        "height": 1024,
        "text": "SA 2016 SP",
        "date": 1477132372
      },
      {
        "id": 439275257,
        "album_id": 235251592,
        "owner_id": -45949012,
        "user_id": 100,
        "photo_75": "http://cs626330.vk.me/v626330271/334df/FoDkkzaevJ4.jpg",
        "photo_130": "http://cs626330.vk.me/v626330271/334e0/ILan9OuExbg.jpg",
        "photo_604": "http://cs626330.vk.me/v626330271/334e1/bdAsDIa0cpw.jpg",
        "width": 393,
        "height": 600,
        "text": "SA 2016 SP",
        "date": 1477132024
      },
      {
        "id": 439275258,
        "album_id": 235251592,
        "owner_id": -45949012,
        "user_id": 100,
        "photo_75": "http://cs626330.vk.me/v626330271/334e6/uLhhmvBpx98.jpg",
        "photo_130": "http://cs626330.vk.me/v626330271/334e7/X5_m66af6eg.jpg",
        "photo_604": "http://cs626330.vk.me/v626330271/334e8/tXjwNF6JX6I.jpg",
        "width": 337,
        "height": 600,
        "text": "SA 2016 SP",
        "date": 1477132024
      },
      {
        "id": 439275251,
        "album_id": 235251592,
        "owner_id": -45949012,
        "user_id": 100,
        "photo_75": "http://cs626330.vk.me/v626330271/334d1/10ecRTIeq10.jpg",
        "photo_130": "http://cs626330.vk.me/v626330271/334d2/q84yfWPvDEE.jpg",
        "photo_604": "http://cs626330.vk.me/v626330271/334d3/giYC30CVH_c.jpg",
        "width": 431,
        "height": 600,
        "text": "SA 2016 SP",
        "date": 1477132022
      },
      {
        "id": 439275252,
        "album_id": 235251592,
        "owner_id": -45949012,
        "user_id": 100,
        "photo_75": "http://cs626330.vk.me/v626330271/334d8/9MowgVjfeUE.jpg",
        "photo_130": "http://cs626330.vk.me/v626330271/334d9/9HvB0ad7QJk.jpg",
        "photo_604": "http://cs626330.vk.me/v626330271/334da/SSZRpw-NPKI.jpg",
        "width": 369,
        "height": 600,
        "text": "SA 2016 SP",
        "date": 1477132022
      },
      {
        "id": 439273754,
        "album_id": 235251592,
        "owner_id": -45949012,
        "user_id": 100,
        "photo_75": "http://cs626330.vk.me/v626330271/334c1/_ml0ZGquZxM.jpg",
        "photo_130": "http://cs626330.vk.me/v626330271/334c2/THDLbFg7QQw.jpg",
        "photo_604": "http://cs626330.vk.me/v626330271/334c3/BcocYwFIGPo.jpg",
        "photo_807": "http://cs626330.vk.me/v626330271/334c4/RjrtpVjkzbo.jpg",
        "photo_1280": "http://cs626330.vk.me/v626330271/334c5/ydCMC0RsXdE.jpg",
        "width": 498,
        "height": 810,
        "text": "SA 2016 SP",
        "date": 1477131382
      },
      {
        "id": 438506058,
        "album_id": -7,
        "owner_id": -86911790,
        "user_id": 100,
        "photo_75": "http://cs604330.vk.me/v604330139/3695c/Aad-BzJDE6A.jpg",
        "photo_130": "http://cs604330.vk.me/v604330139/3695d/5A2c9LCtshY.jpg",
        "photo_604": "http://cs604330.vk.me/v604330139/3695e/iQEm_KNEEUY.jpg",
        "width": 596,
        "height": 380,
        "text": "Original: http://img2.goodfon.su/wallpaper/big/f/6a/pixiv-fantasia-sa-yuki-art.jpg",
        "date": 1477131328
      },
      {
        "id": 438192112,
        "album_id": 193222958,
        "owner_id": 245193038,
        "photo_75": "http://cs636418.vk.me/v636418038/2dc46/bZg32X-5yE8.jpg",
        "photo_130": "http://cs636418.vk.me/v636418038/2dc47/voA1E8o3ntQ.jpg",
        "photo_604": "http://cs636418.vk.me/v636418038/2dc48/m5mEw1kpGNI.jpg",
        "photo_807": "http://cs636418.vk.me/v636418038/2dc49/tT62BfIgMcE.jpg",
        "width": 640,
        "height": 640,
        "text": "Quand sa te fait rappeler yemet zmen :3 \n#Nostalgie #enfance #dînette #innocence",
        "date": 1477130959
      },
      {
        "id": 439084895,
        "album_id": 237024450,
        "owner_id": -12652017,
        "user_id": 100,
        "photo_75": "http://cs626827.vk.me/v626827000/32e8b/Rrl5PHDe6Rc.jpg",
        "photo_130": "http://cs626827.vk.me/v626827000/32e8c/X8eg8Z44_4k.jpg",
        "photo_604": "http://cs626827.vk.me/v626827000/32e8d/NEJ8fwO38p0.jpg",
        "photo_807": "http://cs626827.vk.me/v626827000/32e8e/ikFrH7RMNF8.jpg",
        "width": 629,
        "height": 600,
        "text": "SA-536\nКПБ поплин 1,5 сп 885р",
        "date": 1477130789
      },
      {
        "id": 439084896,
        "album_id": 237024450,
        "owner_id": -12652017,
        "user_id": 100,
        "photo_75": "http://cs626827.vk.me/v626827000/32e93/ay8PZ8L6xrA.jpg",
        "photo_130": "http://cs626827.vk.me/v626827000/32e94/wpKQYyzcwyg.jpg",
        "photo_604": "http://cs626827.vk.me/v626827000/32e95/i8l1vtD9Ujk.jpg",
        "photo_807": "http://cs626827.vk.me/v626827000/32e96/0-u7AxWfrKE.jpg",
        "width": 800,
        "height": 565,
        "text": "SA-603\nКПБ поплин 1,5 сп 885р",
        "date": 1477130789
      },
      {
        "id": 439084898,
        "album_id": 237024450,
        "owner_id": -12652017,
        "user_id": 100,
        "photo_75": "http://cs626827.vk.me/v626827000/32ea3/xL6Q4Qf7hcE.jpg",
        "photo_130": "http://cs626827.vk.me/v626827000/32ea4/5HUYhFd0MLY.jpg",
        "photo_604": "http://cs626827.vk.me/v626827000/32ea5/Jeu556_MDlM.jpg",
        "photo_807": "http://cs626827.vk.me/v626827000/32ea6/6GBaZuCSfEk.jpg",
        "width": 632,
        "height": 600,
        "text": "SA-545\nКПБ поплин 1,5 сп 885р",
        "date": 1477130789
      },
      {
        "id": 439084875,
        "album_id": 237024450,
        "owner_id": -12652017,
        "user_id": 100,
        "photo_75": "http://cs626827.vk.me/v626827000/32e73/HPCJ99Hbjyc.jpg",
        "photo_130": "http://cs626827.vk.me/v626827000/32e74/U2k4GwEeH9U.jpg",
        "photo_604": "http://cs626827.vk.me/v626827000/32e75/iRDgzNAMiTY.jpg",
        "photo_807": "http://cs626827.vk.me/v626827000/32e76/-FUgNEGMDfM.jpg",
        "width": 800,
        "height": 565,
        "text": "SA-572\nКПБ поплин 1,5 сп 885р",
        "date": 1477130783
      },
      {
        "id": 439084778,
        "album_id": 237024450,
        "owner_id": -12652017,
        "user_id": 100,
        "photo_75": "http://cs626827.vk.me/v626827000/32dc3/5nwRw0b-HYs.jpg",
        "photo_130": "http://cs626827.vk.me/v626827000/32dc4/05KjEI7m8ec.jpg",
        "photo_604": "http://cs626827.vk.me/v626827000/32dc5/z0Pqm8-KpQA.jpg",
        "photo_807": "http://cs626827.vk.me/v626827000/32dc6/jhXdV6xr_eg.jpg",
        "width": 634,
        "height": 600,
        "text": "SA-577\nКПБ поплин 1,5 сп 885р",
        "date": 1477130752
      },
      {
        "id": 439084746,
        "album_id": 237024450,
        "owner_id": -12652017,
        "user_id": 100,
        "photo_75": "http://cs626827.vk.me/v626827000/32d73/1rpHWhis2K4.jpg",
        "photo_130": "http://cs626827.vk.me/v626827000/32d74/ir80aQXWw4I.jpg",
        "photo_604": "http://cs626827.vk.me/v626827000/32d75/RhNylLSngIA.jpg",
        "photo_807": "http://cs626827.vk.me/v626827000/32d76/YY7vlCoP22Q.jpg",
        "width": 636,
        "height": 600,
        "text": "SA-642\nКПБ поплин 1,5 сп 885р",
        "date": 1477130736
      },
      {
        "id": 439084722,
        "album_id": 237024450,
        "owner_id": -12652017,
        "user_id": 100,
        "photo_75": "http://cs626827.vk.me/v626827000/32d53/y9KcU7FuNo0.jpg",
        "photo_130": "http://cs626827.vk.me/v626827000/32d54/bbkqp2JVHik.jpg",
        "photo_604": "http://cs626827.vk.me/v626827000/32d55/4OntYzPMVd0.jpg",
        "photo_807": "http://cs626827.vk.me/v626827000/32d56/uk6jykoeog4.jpg",
        "width": 634,
        "height": 600,
        "text": "SA-647\nКПБ поплин 1,5 сп 885р",
        "date": 1477130733
      },
      {
        "id": 439084721,
        "album_id": 237024450,
        "owner_id": -12652017,
        "user_id": 100,
        "photo_75": "http://cs626827.vk.me/v626827000/32d4b/viE6BXwFmYs.jpg",
        "photo_130": "http://cs626827.vk.me/v626827000/32d4c/9gHXhLUpiVc.jpg",
        "photo_604": "http://cs626827.vk.me/v626827000/32d4d/LLd2UWdPxEk.jpg",
        "photo_807": "http://cs626827.vk.me/v626827000/32d4e/-IP8keM6ViU.jpg",
        "width": 636,
        "height": 600,
        "text": "SA-588\nКПБ поплин 1,5 сп 885р",
        "date": 1477130733
      },
      {
        "id": 439084725,
        "album_id": 237024450,
        "owner_id": -12652017,
        "user_id": 100,
        "photo_75": "http://cs626827.vk.me/v626827000/32d6b/hgDu8v3bT3o.jpg",
        "photo_130": "http://cs626827.vk.me/v626827000/32d6c/Gjt99aUqZZg.jpg",
        "photo_604": "http://cs626827.vk.me/v626827000/32d6d/RgD_6Qfg8o8.jpg",
        "photo_807": "http://cs626827.vk.me/v626827000/32d6e/AuMvpRjjG8Y.jpg",
        "width": 634,
        "height": 600,
        "text": "SA-610\nКПБ поплин 1,5 сп 885р",
        "date": 1477130733
      },
      {
        "id": 439084713,
        "album_id": 237024450,
        "owner_id": -12652017,
        "user_id": 100,
        "photo_75": "http://cs626827.vk.me/v626827000/32d3b/zcYeZHa9DSA.jpg",
        "photo_130": "http://cs626827.vk.me/v626827000/32d3c/IOBwZ9NFuZk.jpg",
        "photo_604": "http://cs626827.vk.me/v626827000/32d3d/a50VPp0vuaI.jpg",
        "photo_807": "http://cs626827.vk.me/v626827000/32d3e/vL988pd3FC0.jpg",
        "width": 638,
        "height": 600,
        "text": "SA-645\nКПБ поплин 1,5 сп 885р",
        "date": 1477130731
      },
      {
        "id": 439084710,
        "album_id": 237024450,
        "owner_id": -12652017,
        "user_id": 100,
        "photo_75": "http://cs626827.vk.me/v626827000/32d23/7bJlfsKARow.jpg",
        "photo_130": "http://cs626827.vk.me/v626827000/32d24/8qAX4mo2xMY.jpg",
        "photo_604": "http://cs626827.vk.me/v626827000/32d25/VwCJRvr9bJE.jpg",
        "photo_807": "http://cs626827.vk.me/v626827000/32d26/2Ijr6Z5IiU8.jpg",
        "width": 800,
        "height": 565,
        "text": "SA-640\nКПБ поплин 1,5 сп 885р",
        "date": 1477130731
      },
      {
        "id": 439084714,
        "album_id": 237024450,
        "owner_id": -12652017,
        "user_id": 100,
        "photo_75": "http://cs626827.vk.me/v626827000/32d43/fz9nB7Wu2Bc.jpg",
        "photo_130": "http://cs626827.vk.me/v626827000/32d44/07LRw9InRMw.jpg",
        "photo_604": "http://cs626827.vk.me/v626827000/32d45/U0DKS3aaevA.jpg",
        "photo_807": "http://cs626827.vk.me/v626827000/32d46/lIXEF8FW5BQ.jpg",
        "width": 634,
        "height": 600,
        "text": "SA-644\nКПБ поплин 1,5 сп 885р",
        "date": 1477130731
      },
      {
        "id": 439084679,
        "album_id": 237024450,
        "owner_id": -12652017,
        "user_id": 100,
        "photo_75": "http://cs626827.vk.me/v626827000/32cd3/-Q3XBf09nXE.jpg",
        "photo_130": "http://cs626827.vk.me/v626827000/32cd4/MxAD3jCkMZs.jpg",
        "photo_604": "http://cs626827.vk.me/v626827000/32cd5/StiDmiJYwYI.jpg",
        "photo_807": "http://cs626827.vk.me/v626827000/32cd6/PwQ2yVcXmeE.jpg",
        "width": 800,
        "height": 565,
        "text": "SA-634\nКПБ поплин 1,5 сп 885р",
        "date": 1477130721
      },
      {
        "id": 439084649,
        "album_id": 237024450,
        "owner_id": -12652017,
        "user_id": 100,
        "photo_75": "http://cs626827.vk.me/v626827000/32cb3/DZJfBOqlhdo.jpg",
        "photo_130": "http://cs626827.vk.me/v626827000/32cb4/_37j2eu53LU.jpg",
        "photo_604": "http://cs626827.vk.me/v626827000/32cb5/QpupAH8Hh9U.jpg",
        "photo_807": "http://cs626827.vk.me/v626827000/32cb6/rGr7H_cotMw.jpg",
        "width": 620,
        "height": 600,
        "text": "SA 457\nКПБ поплин 1,5 сп 885р",
        "date": 1477130703
      },
      {
        "id": 439084651,
        "album_id": 237024450,
        "owner_id": -12652017,
        "user_id": 100,
        "photo_75": "http://cs626827.vk.me/v626827000/32cc3/UEXSJW7zveM.jpg",
        "photo_130": "http://cs626827.vk.me/v626827000/32cc4/A4wl-5ZOI7c.jpg",
        "photo_604": "http://cs626827.vk.me/v626827000/32cc5/O3BOXmsJGpI.jpg",
        "photo_807": "http://cs626827.vk.me/v626827000/32cc6/hcW0gVKW3Rc.jpg",
        "width": 800,
        "height": 565,
        "text": "SA-641\nКПБ поплин 1,5 сп 885р",
        "date": 1477130703
      },
      {
        "id": 439084652,
        "album_id": 237024450,
        "owner_id": -12652017,
        "user_id": 100,
        "photo_75": "http://cs626827.vk.me/v626827000/32ccb/TJk4inEJCcE.jpg",
        "photo_130": "http://cs626827.vk.me/v626827000/32ccc/UEzoHNIVb0w.jpg",
        "photo_604": "http://cs626827.vk.me/v626827000/32ccd/c4y4dmHEhbU.jpg",
        "photo_807": "http://cs626827.vk.me/v626827000/32cce/6Xa45xGep_M.jpg",
        "width": 800,
        "height": 565,
        "text": "SA-639\nКПБ поплин 1,5 сп 885р",
        "date": 1477130703
      },
      {
        "id": 439084604,
        "album_id": 237024450,
        "owner_id": -12652017,
        "user_id": 100,
        "photo_75": "http://cs626827.vk.me/v626827000/32c44/m9QiTjQ04hE.jpg",
        "photo_130": "http://cs626827.vk.me/v626827000/32c45/tRaT5ZiIlCE.jpg",
        "photo_604": "http://cs626827.vk.me/v626827000/32c46/2mP9YI3lAYg.jpg",
        "photo_807": "http://cs626827.vk.me/v626827000/32c47/IGcbuV-oFd4.jpg",
        "width": 800,
        "height": 565,
        "text": "SA-472\nКПБ поплин 1,5 сп 885р",
        "date": 1477130685
      },
      {
        "id": 439084605,
        "album_id": 237024450,
        "owner_id": -12652017,
        "user_id": 100,
        "photo_75": "http://cs626827.vk.me/v626827000/32c4c/JIxbQ3UE8Jw.jpg",
        "photo_130": "http://cs626827.vk.me/v626827000/32c4d/W2zmbbO3_CQ.jpg",
        "photo_604": "http://cs626827.vk.me/v626827000/32c4e/SP8vmT9mr_Q.jpg",
        "photo_807": "http://cs626827.vk.me/v626827000/32c4f/tojY-y2zavk.jpg",
        "width": 800,
        "height": 565,
        "text": "SA-421\nКПБ поплин 1,5 сп 885р",
        "date": 1477130685
      },
      {
        "id": 439084603,
        "album_id": 237024450,
        "owner_id": -12652017,
        "user_id": 100,
        "photo_75": "http://cs626827.vk.me/v626827000/32c3c/IwQSZ21BdIU.jpg",
        "photo_130": "http://cs626827.vk.me/v626827000/32c3d/xs_i8WPPe6U.jpg",
        "photo_604": "http://cs626827.vk.me/v626827000/32c3e/uVQqVI3vVLI.jpg",
        "photo_807": "http://cs626827.vk.me/v626827000/32c3f/Y2CtC6mmuEg.jpg",
        "width": 800,
        "height": 565,
        "text": "SA-523\nКПБ поплин 1,5 сп 885р",
        "date": 1477130685
      },
      {
        "id": 439084602,
        "album_id": 237024450,
        "owner_id": -12652017,
        "user_id": 100,
        "photo_75": "http://cs626827.vk.me/v626827000/32c34/9FmzAOeWKf0.jpg",
        "photo_130": "http://cs626827.vk.me/v626827000/32c35/1_K-nnfvC10.jpg",
        "photo_604": "http://cs626827.vk.me/v626827000/32c36/VSOVCWuGXRE.jpg",
        "photo_807": "http://cs626827.vk.me/v626827000/32c37/ETIY6JaNtgs.jpg",
        "width": 800,
        "height": 565,
        "text": "SA-605\nКПБ поплин 1,5 сп 885р",
        "date": 1477130685
      },
      {
        "id": 439084586,
        "album_id": 237024450,
        "owner_id": -12652017,
        "user_id": 100,
        "photo_75": "http://cs626827.vk.me/v626827000/32c14/4a_BXXL7vmw.jpg",
        "photo_130": "http://cs626827.vk.me/v626827000/32c15/Bzk40J1xUEc.jpg",
        "photo_604": "http://cs626827.vk.me/v626827000/32c16/bg0gW9hjHuU.jpg",
        "photo_807": "http://cs626827.vk.me/v626827000/32c17/QmdZnfJvqHw.jpg",
        "width": 800,
        "height": 565,
        "text": "SA-601\nКПБ поплин 1,5 сп 885р",
        "date": 1477130682
      },
      {
        "id": 439084587,
        "album_id": 237024450,
        "owner_id": -12652017,
        "user_id": 100,
        "photo_75": "http://cs626827.vk.me/v626827000/32c1c/D2YYUoLX9Io.jpg",
        "photo_130": "http://cs626827.vk.me/v626827000/32c1d/xbiWrJQyOFM.jpg",
        "photo_604": "http://cs626827.vk.me/v626827000/32c1e/jaioWhsUsJQ.jpg",
        "photo_807": "http://cs626827.vk.me/v626827000/32c1f/djITMtPoK40.jpg",
        "width": 800,
        "height": 565,
        "text": "SA-568\nКПБ поплин 1,5 сп 885р",
        "date": 1477130682
      },
      {
        "id": 437052498,
        "album_id": 237377621,
        "owner_id": 313840489,
        "photo_75": "http://cs604420.vk.me/v604420489/34abc/4sIRx-SBynk.jpg",
        "photo_130": "http://cs604420.vk.me/v604420489/34abd/U--y75T5bD4.jpg",
        "photo_604": "http://cs604420.vk.me/v604420489/34abe/Raf5cPDkGY4.jpg",
        "width": 400,
        "height": 400,
        "text": "Утюг электрический SA-3045NV, 1200 Вт, антипригарная подошва\nЦена: 703,54 руб.\nАрт.: 1684935\nУтюг электрический SA-3045NV, 1200 Вт, антипригарная подошва быстро и безопасно приведёт любую одежду и постельное бельё в порядок. Подошва легко скользит по ткани, разглаживая даже самые непослушные складки. Эргономичная ручка удобно лежит в руке во время глажки. Вы сможете самостоятельно выбрать температурный режим в зависимости от степени деликатности материала.",
        "date": 1477129448
      },
      {
        "id": 437052385,
        "album_id": 237377621,
        "owner_id": 313840489,
        "photo_75": "http://cs604420.vk.me/v604420489/349c0/ZZ8tVisNVcY.jpg",
        "photo_130": "http://cs604420.vk.me/v604420489/349c1/zcVv_cvTuO0.jpg",
        "photo_604": "http://cs604420.vk.me/v604420489/349c2/FjQJjmTd6ok.jpg",
        "width": 400,
        "height": 400,
        "text": "Утюг электрический SA-3018CBL, 2200 Вт, с мерным стаканом, керамическая подошва\nЦена: 1 192,31 руб.\nАрт.: 1389455\nУтюг SAKURA сделает процесс глаженья простым и лёгким. Керамическая подошва обеспечивает идеальное скольжение и устранит даже самые упрямые складки. В комплекте — мерный стакан для наливания точного количества воды.\nОсобенности:\n* функция \"вертикальный пар\";\n* функция \"автоочистка\";\n* регулировка интенсивности пара.\nХарактеристики\n* Мощность: 2200 Вт.\n* Длина сетевого кабеля: 1,8 м.\n* Объем резервуара для воды: 275 мл.\n* Покрытие подошвы: керамика.\n* Размер подошвы: 238 х 120 мм.\n* Регулируемый термостат: есть.\n* Распылитель воды: есть.\n* Вертикальное отпаривание: есть.\n* Паровой удар: 20 г/мин.\n* Автоматическая очистка: есть.",
        "date": 1477129417
      },
      {
        "id": 436592137,
        "album_id": 215748813,
        "owner_id": 75349901,
        "photo_75": "http://cs837630.vk.me/v837630901/d250/wbMTRihMEtE.jpg",
        "photo_130": "http://cs837630.vk.me/v837630901/d251/vHBd5fDeLQw.jpg",
        "photo_604": "http://cs837630.vk.me/v837630901/d252/vDRqxiGouOE.jpg",
        "photo_807": "http://cs837630.vk.me/v837630901/d253/1PSzbtR8Ac8.jpg",
        "width": 640,
        "height": 640,
        "text": "Pug v bánskobystrickej krčme. Snažím sa natočiť puží denník na zadanie do školy, ale hlavná protagonistka s tým nie je stotožnená. #puglife #pugsnotdrugs",
        "date": 1477128871
      },
      {
        "id": 437494377,
        "album_id": 225931231,
        "owner_id": -6626255,
        "user_id": 100,
        "photo_75": "http://cs837130.vk.me/v837130462/7888/MNBBdtZv2C4.jpg",
        "photo_130": "http://cs837130.vk.me/v837130462/7889/P4eWdui8gKs.jpg",
        "photo_604": "http://cs837130.vk.me/v837130462/788a/8NUnFPc3wcU.jpg",
        "photo_807": "http://cs837130.vk.me/v837130462/788b/OYPfI_a8GqU.jpg",
        "width": 750,
        "height": 500,
        "text": "[Инстаграм] 161022 Дара\n\nУже сегодня!!! Напряженные, захватывающие и трепещущие промежуточные этапы!!! Вау.. эти выпуски веселые, и одновременно грустные, потому что будут исключены участники.. Так что давайте болеть и поддерживать наших ребят!!! 😀👊🏻👊🏻👊🏻 aja!!! #BoybandMidRounds @ boybandph",
        "date": 1477128339
      },
      {
        "id": 437599967,
        "album_id": 237057655,
        "owner_id": -107893028,
        "user_id": 100,
        "photo_75": "http://cs626525.vk.me/v626525897/37ca4/kT4CDqXGxtc.jpg",
        "photo_130": "http://cs626525.vk.me/v626525897/37ca5/ieBKjiAzEGs.jpg",
        "photo_604": "http://cs626525.vk.me/v626525897/37ca6/KXY2IIn5GUw.jpg",
        "photo_807": "http://cs626525.vk.me/v626525897/37ca7/7o5XHV893iI.jpg",
        "width": 800,
        "height": 556,
        "text": "http://elenatex.ru/catalog/naslazhdenie/art-sa-380-kpb-iz-poplina-110gr-seriya-naslazhdenie.html\nАрт: 030 КПБ из поплина(110гр.), серия NаSлажDение\n1 081 руб.\nРазмеры: Евро mini: (Цена: 1240.00),\n",
        "date": 1477128046
      },
      {
        "id": 437599863,
        "album_id": 237057655,
        "owner_id": -107893028,
        "user_id": 100,
        "photo_75": "http://cs626525.vk.me/v626525897/37ba4/XJ7ei6GnDXs.jpg",
        "photo_130": "http://cs626525.vk.me/v626525897/37ba5/7yzR_8dtKzA.jpg",
        "photo_604": "http://cs626525.vk.me/v626525897/37ba6/L2vygF4UVho.jpg",
        "photo_807": "http://cs626525.vk.me/v626525897/37ba7/h6wmvmMMvfs.jpg",
        "width": 800,
        "height": 566,
        "text": "http://elenatex.ru/catalog/naslazhdenie/art-sa-334-kpb-iz-poplina-110gr-seriya-naslazhdenie.html\nАрт: Sa-334 КПБ из поплина(110гр.), серия NаSлажDение\n1 081 руб.\nРазмеры: 2 спальный с евро простыней: (Цена: 1170.00), Евро mini: (Цена: 1240.00),\n",
        "date": 1477128016
      },
      {
        "id": 437599862,
        "album_id": 237057655,
        "owner_id": -107893028,
        "user_id": 100,
        "photo_75": "http://cs626525.vk.me/v626525897/37b9c/oln2qZzKDuc.jpg",
        "photo_130": "http://cs626525.vk.me/v626525897/37b9d/zFmx2hY-MV4.jpg",
        "photo_604": "http://cs626525.vk.me/v626525897/37b9e/jfpL7c8Ceso.jpg",
        "photo_807": "http://cs626525.vk.me/v626525897/37b9f/mG3afJG9fH8.jpg",
        "width": 800,
        "height": 566,
        "text": "http://elenatex.ru/catalog/product/view/27/1618.html\nАрт: Sa-380 КПБ из поплина(110гр.), серия NаSлажDение\n1 081 руб.\nРазмеры: 2 спальный с евро простыней: (Цена: 1170.00),\n",
        "date": 1477128016
      },
      {
        "id": 436746884,
        "album_id": 235435810,
        "owner_id": -123506427,
        "user_id": 100,
        "photo_75": "http://cs836122.vk.me/v836122501/8eef/yNhjqUxPlBs.jpg",
        "photo_130": "http://cs836122.vk.me/v836122501/8ef0/YPC-MairbDI.jpg",
        "photo_604": "http://cs836122.vk.me/v836122501/8ef1/sueEsH697tg.jpg",
        "photo_807": "http://cs836122.vk.me/v836122501/8ef2/O3vZM5XDmMc.jpg",
        "width": 692,
        "height": 514,
        "text": "Траверса Yamaha Jog SA-04, SA-12, SA-16, под диаметр штока перьев 26мм\n390 грн.",
        "date": 1477127855
      },
      {
        "id": 436746885,
        "album_id": 235435810,
        "owner_id": -123506427,
        "user_id": 100,
        "photo_75": "http://cs836122.vk.me/v836122501/8ef7/tg9rjY_UR7E.jpg",
        "photo_130": "http://cs836122.vk.me/v836122501/8ef8/ftqNF9V3AIs.jpg",
        "photo_604": "http://cs836122.vk.me/v836122501/8ef9/kR9Nn3MMnuo.jpg",
        "photo_807": "http://cs836122.vk.me/v836122501/8efa/Kh-OwOJuhyc.jpg",
        "width": 700,
        "height": 490,
        "text": "Траверса Yamaha Jog SA-04, SA-12, SA-16, под диаметр штока перьев 26мм\n390 грн.",
        "date": 1477127855
      },
      {
        "id": 439443548,
        "album_id": 236861927,
        "owner_id": -45813852,
        "user_id": 100,
        "photo_75": "http://cs836437.vk.me/v836437253/974a/Pdm1rDFXUFY.jpg",
        "photo_130": "http://cs836437.vk.me/v836437253/974b/TjVferIvK3o.jpg",
        "photo_604": "http://cs836437.vk.me/v836437253/974c/rtXllFI0x50.jpg",
        "width": 600,
        "height": 600,
        "text": "http://mini-kovriki.ru/fotoalbom-image-art-sa-10-r-23-28-seriya-126-cvety/\nФотоальбом Image Art SA-10-Р/23*28 серия 126 цветы\n335,00 руб.\n",
        "date": 1477127740
      },
      {
        "id": 439443539,
        "album_id": 236861927,
        "owner_id": -45813852,
        "user_id": 100,
        "photo_75": "http://cs836437.vk.me/v836437253/9743/pHwaqaOERHU.jpg",
        "photo_130": "http://cs836437.vk.me/v836437253/9744/IOhlhBjR2Jo.jpg",
        "photo_604": "http://cs836437.vk.me/v836437253/9745/8pNCbd6lHNQ.jpg",
        "width": 600,
        "height": 600,
        "text": "http://mini-kovriki.ru/fotoalbom-image-art-sa-10-r-28-23-seriya-185-cvety/\nФотоальбом Image Art SA-10-Р/28*23 серия 185 цветы\n335,00 руб.\n",
        "date": 1477127736
      },
      {
        "id": 439443538,
        "album_id": 236861927,
        "owner_id": -45813852,
        "user_id": 100,
        "photo_75": "http://cs836437.vk.me/v836437253/973a/0AmdPnH3tXE.jpg",
        "photo_130": "http://cs836437.vk.me/v836437253/973b/bD3D-wSQDUA.jpg",
        "photo_604": "http://cs836437.vk.me/v836437253/973c/SafIXOiZXzk.jpg",
        "photo_807": "http://cs836437.vk.me/v836437253/973d/1U5LgbuLevI.jpg",
        "photo_1280": "http://cs836437.vk.me/v836437253/973e/IUbwuRF-AnM.jpg",
        "width": 1000,
        "height": 1000,
        "text": "http://mini-kovriki.ru/fotoalbom-image-art-sa-10-r-23-28-seriya-132-detsk/\nФотоальбом Image Art SA-10-Р/23*28 серия 132 детск\n335,00 руб.\n",
        "date": 1477127736
      },
      {
        "id": 436746536,
        "album_id": 232749075,
        "owner_id": -123506427,
        "user_id": 100,
        "photo_75": "http://cs836122.vk.me/v836122501/8edf/-QqK6n8N9SQ.jpg",
        "photo_130": "http://cs836122.vk.me/v836122501/8ee0/KrjFUpkd6NI.jpg",
        "photo_604": "http://cs836122.vk.me/v836122501/8ee1/Yqgws5M3vkw.jpg",
        "photo_807": "http://cs836122.vk.me/v836122501/8ee2/SqlKBZoi9X0.jpg",
        "width": 764,
        "height": 504,
        "text": "Фара Yamaha Jog Poche 3KJ, SA-08\n320 грн.",
        "date": 1477127671
      },
      {
        "id": 436746537,
        "album_id": 232749075,
        "owner_id": -123506427,
        "user_id": 100,
        "photo_75": "http://cs836122.vk.me/v836122501/8ee7/Z0rjCmMdaVA.jpg",
        "photo_130": "http://cs836122.vk.me/v836122501/8ee8/dPhmkY9I5pw.jpg",
        "photo_604": "http://cs836122.vk.me/v836122501/8ee9/tPhu4NSCECw.jpg",
        "photo_807": "http://cs836122.vk.me/v836122501/8eea/NjOV0MX7B-M.jpg",
        "width": 746,
        "height": 462,
        "text": "Фара Yamaha Jog Poche 3KJ, SA-08\n320 грн.",
        "date": 1477127671
      },
      {
        "id": 436746535,
        "album_id": 232749075,
        "owner_id": -123506427,
        "user_id": 100,
        "photo_75": "http://cs836122.vk.me/v836122501/8ed7/A8F3oBCL5Zg.jpg",
        "photo_130": "http://cs836122.vk.me/v836122501/8ed8/EHSF5GFAGoQ.jpg",
        "photo_604": "http://cs836122.vk.me/v836122501/8ed9/UnzAILyhp2s.jpg",
        "photo_807": "http://cs836122.vk.me/v836122501/8eda/3hJ_fdWrWCU.jpg",
        "width": 756,
        "height": 522,
        "text": "Фара Yamaha Jog Poche 3KJ, SA-08\n320 грн.",
        "date": 1477127670
      },
      {
        "id": 433171123,
        "album_id": -7,
        "owner_id": -96421651,
        "user_id": 100,
        "photo_75": "http://cs638030.vk.me/v638030006/5a49/cxzVfwMii7I.jpg",
        "photo_130": "http://cs638030.vk.me/v638030006/5a4a/y_j3UQCl8f4.jpg",
        "photo_604": "http://cs638030.vk.me/v638030006/5a4b/SyDdRH9ri3U.jpg",
        "photo_807": "http://cs638030.vk.me/v638030006/5a4c/aorGB-uwdxM.jpg",
        "photo_1280": "http://cs638030.vk.me/v638030006/5a4d/LBy9EKFEJgI.jpg",
        "width": 900,
        "height": 846,
        "text": "Original: https://s3-eu-west-1.amazonaws.com/img1.haraj.com.sa/userfiles30/2016-04-16/57123a188a08b.jpeg",
        "date": 1477126938
      },
      {
        "id": 436091417,
        "album_id": -7,
        "owner_id": -123012961,
        "user_id": 100,
        "photo_75": "http://cs638628.vk.me/v638628848/621b/u8Z9SPb93fE.jpg",
        "photo_130": "http://cs638628.vk.me/v638628848/621c/zKeto4MkDL8.jpg",
        "photo_604": "http://cs638628.vk.me/v638628848/621d/ufy2T6YVJpY.jpg",
        "photo_807": "http://cs638628.vk.me/v638628848/621e/YRryy2Hsh84.jpg",
        "photo_1280": "http://cs638628.vk.me/v638628848/621f/6R1nyq0LmtE.jpg",
        "width": 869,
        "height": 725,
        "text": "Original: https://www.upload.ee/image/4778226/sa-mp-029.png",
        "date": 1477125707
      },
      {
        "id": 438625843,
        "album_id": 236804975,
        "owner_id": -42610212,
        "user_id": 100,
        "photo_75": "http://cs637317.vk.me/v637317343/14d8a/OqPDvaCaQ34.jpg",
        "photo_130": "http://cs637317.vk.me/v637317343/14d8b/QBF5u7Mp4J8.jpg",
        "photo_604": "http://cs637317.vk.me/v637317343/14d8c/2fHrfwg02gI.jpg",
        "width": 460,
        "height": 325,
        "text": "http://vzkp.ru/NcJGCtq\nSA-658 2 сп. с евро простыней\n1050 руб. + орг. сбор + доставка\n\nРазмеры: 1,5 спальный; 2 спальный; 2 сп. с евро простыней; семейный; евро\nВыбранный размер: 2 сп. с евро простыней",
        "date": 1477125198
      },
      {
        "id": 438625799,
        "album_id": 236804975,
        "owner_id": -42610212,
        "user_id": 100,
        "photo_75": "http://cs637317.vk.me/v637317343/14d83/sHdG-gjphtU.jpg",
        "photo_130": "http://cs637317.vk.me/v637317343/14d84/wSojAV7jc-8.jpg",
        "photo_604": "http://cs637317.vk.me/v637317343/14d85/1jES0KBOhKc.jpg",
        "width": 460,
        "height": 325,
        "text": "http://vzkp.ru/LaL4sIR\nSA-655 2 сп. с евро простыней\n1050 руб. + орг. сбор + доставка\n\nРазмеры: 1,5 спальный; 2 спальный; 2 сп. с евро простыней; семейный; евро\nВыбранный размер: 2 сп. с евро простыней",
        "date": 1477125175
      },
      {
        "id": 438625765,
        "album_id": 236804975,
        "owner_id": -42610212,
        "user_id": 100,
        "photo_75": "http://cs637317.vk.me/v637317343/14d7c/2wFcrcl957o.jpg",
        "photo_130": "http://cs637317.vk.me/v637317343/14d7d/jL77zsR2pPE.jpg",
        "photo_604": "http://cs637317.vk.me/v637317343/14d7e/qd-NGZqL2Bg.jpg",
        "width": 460,
        "height": 325,
        "text": "http://vzkp.ru/M7hsidT\nSA-651 2 сп. с евро простыней\n1050 руб. + орг. сбор + доставка\n\nРазмеры: 1,5 спальный; 2 спальный; 2 сп. с евро простыней; семейный; евро\nВыбранный размер: 2 сп. с евро простыней",
        "date": 1477125153
      },
      {
        "id": 438625632,
        "album_id": 236804975,
        "owner_id": -42610212,
        "user_id": 100,
        "photo_75": "http://cs637317.vk.me/v637317343/14d6e/T08taMCs25g.jpg",
        "photo_130": "http://cs637317.vk.me/v637317343/14d6f/xkmSjs7gVj0.jpg",
        "photo_604": "http://cs637317.vk.me/v637317343/14d70/gdD1fsvI3Bg.jpg",
        "width": 460,
        "height": 325,
        "text": "http://vzkp.ru/c84Zxnu\nSA-601 2 сп. с евро простыней\n1050 руб. + орг. сбор + доставка\n\nРазмеры: 1,5 спальный; 2 спальный; 2 сп. с евро простыней; семейный; евро\nВыбранный размер: 2 сп. с евро простыней",
        "date": 1477125109
      },
      {
        "id": 438625584,
        "album_id": 236804975,
        "owner_id": -42610212,
        "user_id": 100,
        "photo_75": "http://cs637317.vk.me/v637317343/14d67/q5eq1w2ArXc.jpg",
        "photo_130": "http://cs637317.vk.me/v637317343/14d68/zcdgAPaiqvw.jpg",
        "photo_604": "http://cs637317.vk.me/v637317343/14d69/1D6TeS_ilAo.jpg",
        "width": 460,
        "height": 325,
        "text": "http://vzkp.ru/TKKY2rG\nSA-588 2 сп. с евро простыней\n1050 руб. + орг. сбор + доставка\n\nРазмеры: 1,5 спальный; 2 спальный; 2 сп. с евро простыней; семейный; евро\nВыбранный размер: 2 сп. с евро простыней",
        "date": 1477125088
      },
      {
        "id": 438625456,
        "album_id": 236804975,
        "owner_id": -42610212,
        "user_id": 100,
        "photo_75": "http://cs637317.vk.me/v637317343/14d59/ZfPHgDAMWP0.jpg",
        "photo_130": "http://cs637317.vk.me/v637317343/14d5a/5tOXLPD4gNY.jpg",
        "photo_604": "http://cs637317.vk.me/v637317343/14d5b/ztpEAiYQwHs.jpg",
        "width": 460,
        "height": 325,
        "text": "http://vzkp.ru/a2ybbAu\nSA-536 2 сп. с евро простыней\n1050 руб. + орг. сбор + доставка\n\nРазмеры: 1,5 спальный; 2 спальный; 2 сп. с евро простыней; семейный; евро\nВыбранный размер: 2 сп. с евро простыней",
        "date": 1477125043
      },
      {
        "id": 438625397,
        "album_id": 236804975,
        "owner_id": -42610212,
        "user_id": 100,
        "photo_75": "http://cs637317.vk.me/v637317343/14d52/b3hPte3h5uQ.jpg",
        "photo_130": "http://cs637317.vk.me/v637317343/14d53/vi2A1O6OTlE.jpg",
        "photo_604": "http://cs637317.vk.me/v637317343/14d54/CPD-4HP4xqs.jpg",
        "width": 460,
        "height": 325,
        "text": "http://vzkp.ru/4c6lyi0\nSA-523 2 сп. с евро простыней\n1050 руб. + орг. сбор + доставка\n\nРазмеры: 1,5 спальный; 2 спальный; 2 сп. с евро простыней; семейный; евро\nВыбранный размер: 2 сп. с евро простыней",
        "date": 1477125021
      },
      {
        "id": 434928481,
        "album_id": -15,
        "owner_id": 245069855,
        "photo_75": "http://cs636727.vk.me/v636727110/21153/E2O4CM7s_kc.jpg",
        "photo_130": "http://cs636727.vk.me/v636727110/21154/F37J-CNHjLY.jpg",
        "photo_604": "http://cs636727.vk.me/v636727110/21155/StC9QF_xTH0.jpg",
        "photo_807": "http://cs636727.vk.me/v636727110/21156/spUnG_8SNvY.jpg",
        "width": 630,
        "height": 420,
        "text": "Наречия в турецком языке: \n\ngeçmişte - в прошлом \ndaha doğrusu - вернее \nberaber - вместе \nbelki - возможно \nhiç - вообще \nher zaman - всегда \noldukça - довольно \nyeterli - достаточно \ndaha - еще \nbazen - иногда \nelbette - конечно \nbu arada ... - кстати ... \nçok - много, очень \nolabilir - может быть \naslında - на самом деле \nbiraz - немного \nhiçbir zaman - никогда \ngenellikle - обычно \nkötü - плохо \nortasında - посередине \nçünkü - потому что \naşağı yukarı - почти \nara sıra - редко \nçok fazla - слишком много \no zaman - тогда \nsadece - только \niyi - хорошо \nsık - часто \ntamamen - абсолютно \nihtiyatlıca - благоразумно \ndaha çok - больше \nçabuk - быстро \nsonunda - в конце \n... yerine - вместо ... \niç tarafta - внутри \nherhangibir yerde - где-то \nbile - даже \nbile olsa - даже если \nuzak - далеко \ngönüllü olarak - добровольно \ndoğal olarak - естественно \nsonraki - затем \niyi ki - к счастью \nelbette - конечно \nşahsen - лично \ndaha iyi - лучше \nyavaşça - медленно \ndaha az - меньше \naslında - на самом деле \nsola - налево \nsağa - направо \ngeçende - недавно \nhiçbir yerde - нигде \nözellikle - особенно \nönce - перед \nen azından - по крайней мере \ndelice - по-дурацки \ngeç - поздно \nsonra - после \nsürekli - постоянно \nkuralına uygun - правильно \ndüz - прямо \nerken - рано \nakıcı - свободно \nşimdi - сейчас \nciddi - серьезно \ndış tarafta - снаружи \nilkin - сначала \n... kadar - столько же \nyine de - тем не менее \nsabırla - терпеливо \nsessizce - тихо \nartık - уже \ndaha kötü - хуже \nseslice - шумно",
        "date": 1477123976
      },
      {
        "id": 437810794,
        "album_id": -7,
        "owner_id": -54621816,
        "user_id": 100,
        "photo_75": "http://cs626323.vk.me/v626323547/324cb/7BgjZ1eQ3nA.jpg",
        "photo_130": "http://cs626323.vk.me/v626323547/324cc/5cholUr_Ju8.jpg",
        "photo_604": "http://cs626323.vk.me/v626323547/324cd/tNr40hcwDf0.jpg",
        "photo_807": "http://cs626323.vk.me/v626323547/324ce/V_uedjzGlAI.jpg",
        "width": 718,
        "height": 720,
        "text": "Poveste trista\n\nPentru cei care au iubit macar o data in viata. si au suferit inzecit pentru bucatica de bucurie gustata. pentru cei care au \"mancat\" pelin pentru o gurita de \"ambrosie\". pune un blues in surdina si citeste povestea asta. o sa iti placa. \n \nDurerea de stomac cu care s-a trezit nu se datora oboselii sau a mancarii, ci mai degraba din cauza evenimentelor ce aveau sa se intample in ziua aceea. Astazi trebuia sa incheie o relatie ce dura de mai bine de 2 ani de zile. si chiar considera ca a ramas tarziu. Trebuia sa se termine. Isi tot repeta in minte \"nu vreau sa o neindreptatesc nici pe ea. nu sunt eu unic in lumea asta. nu sunt nici prea frumos nici prea destept, dar am facut tot ce imi statea in puteri ca totul sa fie bine. sa nu se termine\". Simtea ca durerea de stomac se accentueaza. Simtea ca se sufoca. s-a imbracat repede si a iesit. Nu a lasat-o niciodata sa astepte pana acum si nu putea sa o faca nici de data asta. Era o zi ploioasa de aprilie. in cateva minute a ajuns la locul intalnirii, ca de obicei ajunsese primul. Dupa cateva minute o vede apropiindu-se pe iubita lui. se hotarasc sa mearga la un cafenea. \n \n \n- Mi-e frig. zise fata. de fapt acesta a fost singurul cuvant rostit pana ce au ajuns la cafenea. \n \n- Vrei sa-mi zici ceva? zise fata uitandu-se in ochii lui. \n \n- Da, ii raspunse el. \n \nFata devenise curioasa. \n \n- Pai, zi-mi o data ce mai stai!? spuse ea iritata. \n \nTanarul ofta si o intreba: \n \n- Pana unde crezi ca va merge asta? sau mai bine zis crezi ca suntem o pereche potrivita? \n \n- De ce simti nevoia sa ma intrebi asta? zise ea. \n \n- Draga mea, iti amintesti ca te-am sunat acum cateva zile? cred ca era in jur de 11 noaptea. \n \n- Imi amintesc, zise ea. \n \nSi tanarul. fara sa mai astepte ca ea sa raspunda continua: \n \n- In noaptea aia ma gandeam la tine, ca de obicei. iti scrisesem o poezie si am vrut sa ti-o spun la telefon, cand te-am sunat nici nu m-ai ",
        "date": 1477122971,
        "post_id": 25318
      },
      {
        "id": 435793713,
        "album_id": -7,
        "owner_id": 281275710,
        "photo_75": "http://cs836338.vk.me/v836338710/7c17/3HhR2wLbD2s.jpg",
        "photo_130": "http://cs836338.vk.me/v836338710/7c18/m4-mGQ7ky8I.jpg",
        "photo_604": "http://cs836338.vk.me/v836338710/7c19/u_oldE9d7Lk.jpg",
        "photo_807": "http://cs836338.vk.me/v836338710/7c1a/LeUvkARlkz8.jpg",
        "photo_1280": "http://cs836338.vk.me/v836338710/7c1b/NRzvuSnn2PQ.jpg",
        "photo_2560": "http://cs836338.vk.me/v836338710/7c1c/N3ZDAV9agpQ.jpg",
        "width": 1395,
        "height": 1199,
        "text": "Original: https://s3-sa-east-1.amazonaws.com/casarpontocom-inspiracoes/wp-content/uploads/2016/04/maio-mes-noivas-min.jpg",
        "date": 1477122575,
        "post_id": 1832
      },
      {
        "id": 434777031,
        "album_id": 234447035,
        "owner_id": 263511548,
        "photo_75": "http://cs637621.vk.me/v637621548/13e01/Z97O_h5GZKM.jpg",
        "photo_130": "http://cs637621.vk.me/v637621548/13e02/ITqYF48RGWo.jpg",
        "photo_604": "http://cs637621.vk.me/v637621548/13e03/PSj3ooeZlhE.jpg",
        "photo_807": "http://cs637621.vk.me/v637621548/13e04/XJIG1yIrCuo.jpg",
        "width": 640,
        "height": 512,
        "text": "Şükran ablam ve Yaşar abim kahvaltıya ve hayırlı olsuna geldiler ayaklarına yüreklerine sağlık 🙏❤️😘",
        "date": 1477122205
      },
      {
        "id": 441322511,
        "album_id": 164565475,
        "owner_id": -44857337,
        "user_id": 100,
        "photo_75": "http://cs626718.vk.me/v626718423/2eec6/Ykvt5li67_k.jpg",
        "photo_130": "http://cs626718.vk.me/v626718423/2eec7/tse9XmJUTlo.jpg",
        "photo_604": "http://cs626718.vk.me/v626718423/2eec8/vQXwVV_GGl4.jpg",
        "photo_807": "http://cs626718.vk.me/v626718423/2eec9/1bbzXb-kNvI.jpg",
        "photo_1280": "http://cs626718.vk.me/v626718423/2eeca/swxJloJsakc.jpg",
        "width": 1280,
        "height": 768,
        "text": "ВАЗ 2105 \"Пятачок, GVR\" V3\n\nПодробнее:\nhttp://vk.com/public44857337?w=page-44857337_51914022\n\nСкачать:\nhttp://www.gamemodding.net/gta-san-andreas/gta-sa-cars/66800-vaz-2105-pyatachok-gvr-v3.html",
        "date": 1477122003
      },
      {
        "id": 437999517,
        "album_id": 236986692,
        "owner_id": -75171797,
        "user_id": 100,
        "photo_75": "http://cs637721.vk.me/v637721236/23fb0/p77MCI_nliQ.jpg",
        "photo_130": "http://cs637721.vk.me/v637721236/23fb1/NiBhF2km6DU.jpg",
        "photo_604": "http://cs637721.vk.me/v637721236/23fb2/04v5H43LcoA.jpg",
        "photo_807": "http://cs637721.vk.me/v637721236/23fb3/3Jc5M0O6aTM.jpg",
        "photo_1280": "http://cs637721.vk.me/v637721236/23fb4/2JlZuvfut7s.jpg",
        "width": 1024,
        "height": 1024,
        "text": "Контейнер пищ. с рис. мал SA-751 (шт.)\nКод/Артикул: 29181\n118.00 руб.\nРазмер: Высота:8.5 см,Диаметр:12 см\nОбъем: 0,7л",
        "date": 1477121666
      },
      {
        "id": 434238999,
        "album_id": 237020301,
        "owner_id": -42716680,
        "user_id": 100,
        "photo_75": "http://cs638525.vk.me/v638525798/7ffb/Obz9hFqjJq8.jpg",
        "photo_130": "http://cs638525.vk.me/v638525798/7ffc/8a3tlvMWqU4.jpg",
        "photo_604": "http://cs638525.vk.me/v638525798/7ffd/Nm4efuQ9W8Y.jpg",
        "photo_807": "http://cs638525.vk.me/v638525798/7ffe/GAA8Bf7dSL4.jpg",
        "photo_1280": "http://cs638525.vk.me/v638525798/7fff/jwlbF0UbCZM.jpg",
        "width": 1024,
        "height": 1024,
        "text": "https://teana-labs.ru/catalog/470/uvlazhnyayushchij-multilamellyarnyj-krem-sa/\nУвлажняющий мультиламеллярный крем «СА»\nКод/Артикул: 2012\n613 руб.\nНаполняясь влагой, кожа обновляется и излучает свежесть.\nМультиламеллярная структура крема способствует глубокому проникновению активных ингредиентов и активизации восстановительных процессов.\nКрем интенсивно увлажняет и успокаивает кожу, делает ее более молодой и упругой.\nУровень SPF защиты - 6-8 единиц\nВода, Цетеарил оливат, Сорбитан оливат, Масло оливковое, Calmosensine (бутиленгликоль, Вода, Лаурет-3, Гидроксиэтилглюкоза, Ацетил дипептид-1 цетиловый эфир), Moist24 (экстракт Императы, Вода, Глицерин, ПЭГ-8, Карбомер), Цетил пальмитат, Сорбитан пальмитат, Изооктил стеарат, Моностеарат глицерина, Диметикон, Цетеарил этилгексаноат, Цетилстеариловый спирт, Глицерин, ПЭГ-7 эфиры оливкового масла, Venuceane (Thermus thermofilius фермент, Глицерин), DNA gel (вода, Глицерина, ДНК, Карбомер), Масло какао, Акрилаты/С 10-30 алкил акрилат кроссполимер, Триэтаноламин, Оптифен, Парфюмерная композиция.",
        "date": 1477120766
      },
      {
        "id": 441317172,
        "album_id": 164565475,
        "owner_id": -44857337,
        "user_id": 100,
        "photo_75": "http://cs626718.vk.me/v626718423/2eeb3/z76bUPcWoU0.jpg",
        "photo_130": "http://cs626718.vk.me/v626718423/2eeb4/5tPlYvtZjz0.jpg",
        "photo_604": "http://cs626718.vk.me/v626718423/2eeb5/M-G_WTDGfxY.jpg",
        "photo_807": "http://cs626718.vk.me/v626718423/2eeb6/v1ODxjENcOU.jpg",
        "photo_1280": "http://cs626718.vk.me/v626718423/2eeb7/BqnJHy7VROU.jpg",
        "width": 1280,
        "height": 768,
        "text": "МГ4\n\nПодробнее:\nhttp://vk.com/public44857337?w=page-44857337_51913959\n\nСкачать:\nhttp://www.gamemodding.net/gta-san-andreas/gta-sa-weapons/66799-mg4.html",
        "date": 1477119303
      },
      {
        "id": 438009788,
        "album_id": 212602748,
        "owner_id": 295573065,
        "photo_75": "http://cs604724.vk.me/v604724065/e736/8fhB5tPl9fs.jpg",
        "photo_130": "http://cs604724.vk.me/v604724065/e737/mgOteU2pTOA.jpg",
        "photo_604": "http://cs604724.vk.me/v604724065/e738/wnSoA5E2eVo.jpg",
        "photo_807": "http://cs604724.vk.me/v604724065/e739/fv5fOdZAyCk.jpg",
        "width": 640,
        "height": 587,
        "text": "новинка этого лета — SAKURA WHEELS 9534 — еще и в черном хроме у нас есть. \nwww.ro-sa.ru \n#ridlerwheels#calioffroadwheels#rosa#роса#диски#сакура#sakurawheels#красивыедиски#touchdownwheels#mayhemwheels#шины",
        "date": 1477117506
      },
      {
        "id": 438323296,
        "album_id": -7,
        "owner_id": -61834306,
        "user_id": 100,
        "photo_75": "http://cs638416.vk.me/v638416998/14543/b9ZRb-Uus8s.jpg",
        "photo_130": "http://cs638416.vk.me/v638416998/14544/_bleBKiEfS4.jpg",
        "photo_604": "http://cs638416.vk.me/v638416998/14545/4AiwdIS059k.jpg",
        "photo_807": "http://cs638416.vk.me/v638416998/14546/Pe4T2tw2hgg.jpg",
        "photo_1280": "http://cs638416.vk.me/v638416998/14547/gCINbMTxPXA.jpg",
        "photo_2560": "http://cs638416.vk.me/v638416998/14548/jxpbp0iXq64.jpg",
        "width": 1600,
        "height": 865,
        "text": "Original: http://www.moviemania.sk/img/galeria/s/sa/sausage-party-03.jpg",
        "date": 1477116163
      },
      {
        "id": 432033383,
        "album_id": 237342919,
        "owner_id": -52243781,
        "user_id": 100,
        "photo_75": "http://cs626130.vk.me/v626130967/2ef77/LVTxYV4PKqw.jpg",
        "photo_130": "http://cs626130.vk.me/v626130967/2ef78/WNYcqdrwnTo.jpg",
        "photo_604": "http://cs626130.vk.me/v626130967/2ef79/rsiSli_BV1A.jpg",
        "photo_807": "http://cs626130.vk.me/v626130967/2ef7a/dUp9W6XGIvQ.jpg",
        "width": 700,
        "height": 700,
        "text": "https://www.sima-land.ru/1059563/termopot-sakura-sa-353wr-3-5-l-750-vt/?sort=price",
        "date": 1477115669
      },
      {
        "id": 439243593,
        "album_id": 235251592,
        "owner_id": -45949012,
        "user_id": 100,
        "photo_75": "http://cs626330.vk.me/v626330271/333fc/ODvRxRq1Jxs.jpg",
        "photo_130": "http://cs626330.vk.me/v626330271/333fd/FKy4Na4Vwyo.jpg",
        "photo_604": "http://cs626330.vk.me/v626330271/333fe/X_nM1Wads6g.jpg",
        "photo_807": "http://cs626330.vk.me/v626330271/333ff/ucdifNXP_Ok.jpg",
        "photo_1280": "http://cs626330.vk.me/v626330271/33400/VeFI9aeEOw4.jpg",
        "width": 498,
        "height": 810,
        "text": "SA 2016 SP",
        "date": 1477115078
      },
      {
        "id": 439243595,
        "album_id": 235251592,
        "owner_id": -45949012,
        "user_id": 100,
        "photo_75": "http://cs626330.vk.me/v626330271/33405/u3AZiuaqeu8.jpg",
        "photo_130": "http://cs626330.vk.me/v626330271/33406/Ffrmk8-K5qQ.jpg",
        "photo_604": "http://cs626330.vk.me/v626330271/33407/r9G8lsgKnBI.jpg",
        "width": 540,
        "height": 405,
        "text": "SA 2016 SP\nhttp://adventuresoftheplatonics.tumblr.com/post/152143565232/sweet-dreams-are-made-of-this-dont-take",
        "date": 1477115078
      },
      {
        "id": 439243592,
        "album_id": 235251592,
        "owner_id": -45949012,
        "user_id": 100,
        "photo_75": "http://cs626330.vk.me/v626330271/333f4/zH10YyPvJxI.jpg",
        "photo_130": "http://cs626330.vk.me/v626330271/333f5/_-8X96v073c.jpg",
        "photo_604": "http://cs626330.vk.me/v626330271/333f6/B90OzZ8zPkg.jpg",
        "photo_807": "http://cs626330.vk.me/v626330271/333f7/QzLdChvJS_c.jpg",
        "width": 540,
        "height": 790,
        "text": "SA 2016 SP",
        "date": 1477115077
      },
      {
        "id": 437491212,
        "album_id": 187240304,
        "owner_id": 242830624,
        "photo_75": "http://cs629630.vk.me/v629630624/3b424/K-E_JnEXotE.jpg",
        "photo_130": "http://cs629630.vk.me/v629630624/3b425/8PIgurnWH24.jpg",
        "photo_604": "http://cs629630.vk.me/v629630624/3b426/QJLOIKitXxM.jpg",
        "photo_807": "http://cs629630.vk.me/v629630624/3b427/AcdlkDZt5t8.jpg",
        "width": 640,
        "height": 640,
        "text": "itong tula ay alay ko sa bayan ko at sa buong mundo",
        "date": 1477111870
      },
      {
        "id": 437491053,
        "album_id": 187240304,
        "owner_id": 242830624,
        "photo_75": "http://cs629630.vk.me/v629630624/3b41c/_oMWLI8hE9Y.jpg",
        "photo_130": "http://cs629630.vk.me/v629630624/3b41d/T3WVe0NV-IE.jpg",
        "photo_604": "http://cs629630.vk.me/v629630624/3b41e/5I9cAjg7SCg.jpg",
        "photo_807": "http://cs629630.vk.me/v629630624/3b41f/hWIQH9hcAZ8.jpg",
        "width": 640,
        "height": 640,
        "text": "sa tuwina'y kandungan n'yo ay duyan",
        "date": 1477111630
      },
      {
        "id": 439240103,
        "album_id": 165606655,
        "owner_id": -45949012,
        "user_id": 100,
        "photo_75": "http://cs626330.vk.me/v626330271/333c7/HdzLTNNYOGQ.jpg",
        "photo_130": "http://cs626330.vk.me/v626330271/333c8/B_8wRcVbAUc.jpg",
        "photo_604": "http://cs626330.vk.me/v626330271/333c9/_uszNrc5g2E.jpg",
        "photo_807": "http://cs626330.vk.me/v626330271/333ca/XhQ5ymvYnWE.jpg",
        "photo_1280": "http://cs626330.vk.me/v626330271/333cb/12I19MuWcfU.jpg",
        "width": 1080,
        "height": 1080,
        "text": "SA 2016",
        "date": 1477111520
      },
      {
        "id": 438507135,
        "album_id": -7,
        "owner_id": -38044058,
        "user_id": 100,
        "photo_75": "http://cs637821.vk.me/v637821902/15b6e/AibXDUMf7l8.jpg",
        "photo_130": "http://cs637821.vk.me/v637821902/15b6f/uPaaX5S7pQs.jpg",
        "photo_604": "http://cs637821.vk.me/v637821902/15b70/JY3cic24UCs.jpg",
        "photo_807": "http://cs637821.vk.me/v637821902/15b71/snhcahsh8eA.jpg",
        "width": 790,
        "height": 538,
        "text": "Original: http://positivr.fr/wp-content/uploads/2014/09/risquer-sa-vie-pour-se-rendre-a-l-ecole-06.jpg",
        "date": 1477109700,
        "post_id": 80658
      },
      {
        "id": 440035292,
        "album_id": 237338507,
        "owner_id": 11700871,
        "photo_75": "http://cs837339.vk.me/v837339871/8e92/htZDJ9u7nks.jpg",
        "photo_130": "http://cs837339.vk.me/v837339871/8e93/Ub4_Ok9mvsM.jpg",
        "photo_604": "http://cs837339.vk.me/v837339871/8e94/AE9X9gPqugE.jpg",
        "photo_807": "http://cs837339.vk.me/v837339871/8e95/emsPSXrHf-k.jpg",
        "width": 640,
        "height": 310,
        "text": "http://vzkp.ru/em965oR\nSałatka warzywna z grzybami Salateria Lisner, 500 g\n150 руб.\n\nAromatyczna sałatka inspirowana jesiennymi specjałami, przygotowana na bazie warzyw, prawdziwych opieńków i pieczarek z dodatkiem wyjątkowej kompozycji ziół i przypraw. Idealna dla wielbicieli kuchni polskiej. 1,20 zł/100 g",
        "date": 1477109352
      },
      {
        "id": 440035220,
        "album_id": 237338507,
        "owner_id": 11700871,
        "photo_75": "http://cs837339.vk.me/v837339871/8e62/iBTPPWrFfzA.jpg",
        "photo_130": "http://cs837339.vk.me/v837339871/8e63/xIwJ2oLGKfw.jpg",
        "photo_604": "http://cs837339.vk.me/v837339871/8e64/l24nhL0nQqE.jpg",
        "photo_807": "http://cs837339.vk.me/v837339871/8e65/6YZuBJpeykA.jpg",
        "width": 640,
        "height": 310,
        "text": "http://vzkp.ru/ZY6vZ7t\nSałatka Salateria Lisner, 170 g\n62 руб.\n\nz ziemniaczkami i chrupiącą rzodkiewką, ziemniaczana z jajkiem, ziemniaczana z brokułami i fasolką szparagową Gotowe do spożycia, pyszne i pożywne ziemniaczane sałatki z majonezowym sosem. Każde opakowanie to jedna porcja, w sam raz na kolację. 1,46 zł/100 g",
        "date": 1477109228
      },
      {
        "id": 440035099,
        "album_id": 237338507,
        "owner_id": 11700871,
        "photo_75": "http://cs837339.vk.me/v837339871/8dfe/aVK-jGotqOs.jpg",
        "photo_130": "http://cs837339.vk.me/v837339871/8dff/Qtvh2at3OrI.jpg",
        "photo_604": "http://cs837339.vk.me/v837339871/8e00/gamyzB7Sph0.jpg",
        "photo_807": "http://cs837339.vk.me/v837339871/8e01/0JBDaYVAaRI.jpg",
        "width": 640,
        "height": 310,
        "text": "http://vzkp.ru/4P7N3e4\nPierogi premium z kaczką U Jędrusia, 300 g\n125 руб.\n\nPierogi z cienkiego, delikatnego ciasta wypełnionego smakowitym farszem. Przygotowano go z wysokiej jakości kaczego mięsa z polskich hodowli, doprawionego wyłącznie naturalnymi przyprawami. Produkt nie zawiera żadnych wzmacniaczy smaku. 1,66 zł/100 g",
        "date": 1477109043
      },
      {
        "id": 440034857,
        "album_id": 237338507,
        "owner_id": 11700871,
        "photo_75": "http://cs837339.vk.me/v837339871/8d40/zIjVpdoc7U4.jpg",
        "photo_130": "http://cs837339.vk.me/v837339871/8d41/c2uA1QV-CNs.jpg",
        "photo_604": "http://cs837339.vk.me/v837339871/8d42/OerTxsaw7mQ.jpg",
        "photo_807": "http://cs837339.vk.me/v837339871/8d43/_Nbk8X1HFVw.jpg",
        "width": 640,
        "height": 310,
        "text": "http://vzkp.ru/ByrYHBa\nCiecierzyca Plony Natury, 500 g\n92 руб.\n\nZnana od wieków roślina strączkowa, chętnie wykorzystywana jako składnik zup i sałatek. Może być stosowana jako podstawa dań wegetariańskich. 0,74 zł/100 g",
        "date": 1477108609
      },
      {
        "id": 436308919,
        "album_id": -7,
        "owner_id": -119029385,
        "user_id": 100,
        "photo_75": "http://cs837630.vk.me/v837630548/52c1/lajGaHe33J8.jpg",
        "photo_130": "http://cs837630.vk.me/v837630548/52c2/S6h328n7lh8.jpg",
        "photo_604": "http://cs837630.vk.me/v837630548/52c3/Uk7tXbGbufY.jpg",
        "photo_807": "http://cs837630.vk.me/v837630548/52c4/qmm_qlcRYgk.jpg",
        "photo_1280": "http://cs837630.vk.me/v837630548/52c5/0PPm9d5B-Bk.jpg",
        "width": 1024,
        "height": 683,
        "text": "Могила митрополита Полікарпа на цвинтарі Пер-Лашез\n\nАвтор: Pierre-Yves Beaudouin / Wikimedia Commons, CC BY-SA 4.0, https://commons.wikimedia.org/w/index.php?curid=32197959",
        "date": 1477108069
      },
      {
        "id": 440034456,
        "album_id": 237338507,
        "owner_id": 11700871,
        "photo_75": "http://cs837339.vk.me/v837339871/8c31/QKSGAQAK41k.jpg",
        "photo_130": "http://cs837339.vk.me/v837339871/8c32/Qx3y8M2RDUU.jpg",
        "photo_604": "http://cs837339.vk.me/v837339871/8c33/3MY-UZ2XJw4.jpg",
        "photo_807": "http://cs837339.vk.me/v837339871/8c34/7lrrhr8fYeg.jpg",
        "width": 640,
        "height": 310,
        "text": "http://vzkp.ru/PVIDiNY\nPstrąg patroszony wędzony na gorąco Marinero\n62 руб.\n\nProces wędzenia na gorąco w dymie bukowym podkreślił naturalne walory smakowe mięsa z pstrąga. Stało się one miękkie i aromatyczne, jednocześnie nabierając charakterystycznego smaku i koloru. 24,90 zł/kg",
        "date": 1477107990
      },
      {
        "id": 440034421,
        "album_id": 237338507,
        "owner_id": 11700871,
        "photo_75": "http://cs837339.vk.me/v837339871/8c17/3Hdfz3bDlsY.jpg",
        "photo_130": "http://cs837339.vk.me/v837339871/8c18/vCKXRSsr270.jpg",
        "photo_604": "http://cs837339.vk.me/v837339871/8c19/1S8SSHAkBIw.jpg",
        "photo_807": "http://cs837339.vk.me/v837339871/8c1a/Dsjykh045fk.jpg",
        "width": 640,
        "height": 310,
        "text": "http://vzkp.ru/cEa912r\nPasztet ze Starej Wędzarni, 200 g\n100 руб.\n\nProdukt dla smakoszy, wypiekany z mięsa wieprzowego. Stara Wędzarnia kontynuuje wieloletnie tradycje, dzięki czemu pasztety te są tak samo pyszne, jak niegdyś. 2,00 zł/100 g",
        "date": 1477107928
      },
      {
        "id": 440034311,
        "album_id": 237338507,
        "owner_id": 11700871,
        "photo_75": "http://cs837339.vk.me/v837339871/8bcd/aJk4UyZ5vxU.jpg",
        "photo_130": "http://cs837339.vk.me/v837339871/8bce/96ZYmSrIP_k.jpg",
        "photo_604": "http://cs837339.vk.me/v837339871/8bcf/yymkruAwu4U.jpg",
        "photo_807": "http://cs837339.vk.me/v837339871/8bd0/eEBvbtehdLo.jpg",
        "width": 640,
        "height": 310,
        "text": "http://vzkp.ru/IJGL4uY\nKiełbasa Myśliwska Kraina Wędlin, 220 g\n200 руб.\n\nKiełbasa myśliwska GTS to kiełbasa z mięsa wieprzowego, wyróżniająca się smakiem, kruchością, zapachem, kształtem, a także trwałością. Jest bardzo charakterystyczna: krótka i ciemnobrązowa, o równomiernie pomarszczonej powierzchni. Wyprodukowano ją z dodatkiem przypraw: pieprzu, jałowca i świeżego czosnku. To, co wyróżnia tę wędlinę, to rzadko spotykana i bardzo ceniona przez smakoszy kruchość. 100 g produktu otrzymano ze 155 g mięsa wieprzowego. 3,63 zł/100 g",
        "date": 1477107742
      },
      {
        "id": 440034285,
        "album_id": 237338507,
        "owner_id": 11700871,
        "photo_75": "http://cs837339.vk.me/v837339871/8bac/_jkR_N7OMaE.jpg",
        "photo_130": "http://cs837339.vk.me/v837339871/8bad/HJ5OmHPVEgo.jpg",
        "photo_604": "http://cs837339.vk.me/v837339871/8bae/A3YFFBAkEtU.jpg",
        "photo_807": "http://cs837339.vk.me/v837339871/8baf/1z4Ia2YtzlM.jpg",
        "width": 640,
        "height": 310,
        "text": "http://vzkp.ru/0MBVIJ4\nKabanosy Kraina Wędlin, 115 g\n125 руб.\n\nSuche, bardzo kruche kiełbaski, idealne jako przekąska. Mają lekki posmak wędzenia, kminku oraz pieprzu. Swój wyjątkowy, wyrazisty smak i zapach zawdzięczają tradycyjnemu sposobowi produkcji oraz starannie wyselekcjonowanemu mięsu świń wybranych ras. 100 g produktu otrzymano ze 170 g mięsa wieprzowego. 4,34 zł/100 g",
        "date": 1477107681
      },
      {
        "id": 440034195,
        "album_id": 237338507,
        "owner_id": 11700871,
        "photo_75": "http://cs837339.vk.me/v837339871/8b7c/kkPoR0vV_kM.jpg",
        "photo_130": "http://cs837339.vk.me/v837339871/8b7d/GjIbqXL2zR8.jpg",
        "photo_604": "http://cs837339.vk.me/v837339871/8b7e/bEkujRxQNzA.jpg",
        "photo_807": "http://cs837339.vk.me/v837339871/8b7f/8sVbpa1JJvo.jpg",
        "width": 640,
        "height": 310,
        "text": "http://vzkp.ru/8sSxI4z\nSzynka Swojska Sądecka tradycyjna Kraina Wędlin\n75 руб.\n\nPyszna wędlina z szynki wieprzowej zrolowanej z liściem laurowym, z dodatkiem przypraw. Proces jej produkcji przebiega jak za dawnych lat. Najpierw peklowana jest w chłodnym pomieszczeniu przez 7 do 9 dni. Po wyjęciu z zalewy mięso się roluje i umieszcza w siatce wędliniarskiej, a następnie wędzi w tradycyjny sposób w dymie z drewna bukowego. Ostatnim etapem jest parzenie w temperaturze 80°C. 100 g produktu otrzymano ze 123 g mięsa wieprzowego. 29,90 zł/kg",
        "date": 1477107558
      },
      {
        "id": 440034120,
        "album_id": 237338507,
        "owner_id": 11700871,
        "photo_75": "http://cs837339.vk.me/v837339871/8b62/NnwrSbBZHAE.jpg",
        "photo_130": "http://cs837339.vk.me/v837339871/8b63/TMenGMOHRV8.jpg",
        "photo_604": "http://cs837339.vk.me/v837339871/8b64/kzudvW3sXxA.jpg",
        "photo_807": "http://cs837339.vk.me/v837339871/8b65/5TTQPUp0hWY.jpg",
        "width": 640,
        "height": 310,
        "text": "http://vzkp.ru/K8WTWL0\nKarczek Sądecki tradycyjny Kraina Wędlin\n75 руб.\n\nPeklowana, parzona i tradycyjnie wędzona wędlina wyprodukowana z karczku wieprzowego, umieszczona w siatce z dodatkiem liścia laurowego. Ma łagodny, umiarkowanie słony smak, charakterystyczny dla produktu wędzonego z mięsa wieprzowego. Można wyczuć w nim użyte do produkcji przyprawy: czosnek, pieprz, ziele angielskie i liść laurowy. 100 g produktu otrzymano ze 126 g mięsa wieprzowego. Karczek nazywano często baleronem. Płaty mięsa, związane niekiedy sznurkiem konopnym lub lnianym peklowano w bardzo mocno osolonej wodzie z przyprawami. Wlewano ją do dużego cebra lub drążonego pnia drzewnego, a następnie całość stawiano w chłodnym miejscu. Peklowanie trwało około tygodnia. Następnie mięso poddawano pieczeniu, gotowaniu w posolonej wodzie z dodatkiem zalewy od peklowania albo wędzeniu w wędzarni opalanej drewnem liściastym. Miało to na celu utrzymanie walorów smakowych baleronu, które zyskał w czasie peklowania. Po zakończeniu wędzenia lub parzenia, mięso trafiało na wieszak, gdzie miało ostygnąć i przeschnąć. Dawniej karczek wędzono tylko przy okazji większych uroczystości: wesel, świąt Bożego Narodzenia i Wielkanocy. 29,90 zł/kg",
        "date": 1477107496
      }
    ]
  }
}